Popüler İsimler: 2021 verileri
…
##  [1] "Asel"    "Asya"    "Azra"    "Belinay" "Defne"   "Ebrar"   "Ecrin"  
##  [8] "Ela"     "Elif"    "Eslem"   "Eylül"   "Hiranur" "İrem"    "Meryem" 
## [15] "Miray"   "Nehir"   "Nisanur" "Öykü"    "Yağmur"  "Zehra"   "Zeynep" 
## [22] "Zümra"

df4 <- isimler %>% 
  filter(year>2010, gender == "Female", rank<11) %>% 
  filter(name %in% top10k2)
df4

## # A tibble: 110 × 4
##    name   year  rank gender
##    <chr> <dbl> <dbl> <chr> 
##  1 Asel   2018     8 Female
##  2 Asel   2019     4 Female
##  3 Asel   2020     4 Female
##  4 Asel   2021     3 Female
##  5 Asya   2019     8 Female
##  6 Asya   2020     8 Female
##  7 Asya   2021     4 Female
##  8 Azra   2011     6 Female
##  9 Azra   2012     5 Female
## 10 Azra   2013     6 Female
## # ℹ 100 more rows
…
